[{
  "id": 6383,
  "name": "Шлак",
  "created_at": "2013-01-30T10:15:55+01:00",
  "subscribers": 0,
  "song_count": 2,
  "creator": {
    "id": 10124,
    "display_name": "Alexander Prokofyev",
    "fb_uid": null
  }
}, {
  "id": 6384,
  "name": "Some playlist",
  "created_at": "2013-01-30T10:16:48+01:00",
  "subscribers": 0,
  "song_count": 4,
  "creator": {
    "id": 10124,
    "display_name": "Alexander Prokofyev",
    "fb_uid": null
  }
}, {
  "id": 133,
  "name": "Tech House",
  "created_at": "2012-02-02T14:53:00+01:00",
  "subscribers": 104,
  "song_count": 296,
  "creator": {
    "id": 4,
    "display_name": "Magnus Örn Berg",
    "fb_uid": "642900309"
  }
}, {
  "id": 6457,
  "name": "Testing Creation Of Playlists",
  "created_at": "2013-02-25T23:31:15+01:00",
  "subscribers": 0,
  "song_count": 4,
  "creator": {
    "id": 10124,
    "display_name": "Alexander Prokofyev",
    "fb_uid": null
  }
}, {
  "id": 6509,
  "name": "Kfkkfk",
  "created_at": "2013-03-01T22:23:29+01:00",
  "subscribers": 0,
  "song_count": 8,
  "creator": {
    "id": 10124,
    "display_name": "Alexander Prokofyev",
    "fb_uid": null
  }
}]
